# Blender v2.80 (sub 74) OBJ File: ''
# www.blender.org
mtllib Indicator.mtl
o Cylinder
v 0.000000 0.000000 -1.000000
v 0.214018 0.000000 -0.980785
v 0.382683 0.000000 -0.923880
v 0.555570 0.000000 -0.831470
v 0.707107 0.000000 -0.707107
v 0.831470 0.000000 -0.555570
v 0.923880 0.000000 -0.382683
v 0.980785 0.000000 -0.195090
v -0.980785 0.000000 -0.195091
v -0.923879 0.000000 -0.382684
v -0.831469 0.000000 -0.555571
v -0.707106 0.000000 -0.707108
v -0.555569 0.000000 -0.831470
v -0.382682 0.000000 -0.923880
v -0.214016 0.000000 -0.980786
v -0.000000 0.000000 -0.793267
v 0.154759 0.000000 -0.778024
v 0.303570 0.000000 -0.732883
v 0.440715 0.000000 -0.659577
v 0.560924 0.000000 -0.560924
v 0.659577 0.000000 -0.440715
v 0.732883 0.000000 -0.303570
v 0.778024 0.000000 -0.154759
v 0.000000 0.000000 -1.252086
v -0.778024 0.000000 -0.154759
v -0.732883 0.000000 -0.303571
v -0.659577 0.000000 -0.440716
v -0.560924 0.000000 -0.560925
v -0.440714 0.000000 -0.659578
v -0.303569 0.000000 -0.732883
v -0.154757 0.000000 -0.778025
vt 0.113226 0.421118
vt 0.105457 0.500000
vt 0.000083 0.500000
vt 0.009877 0.390913
vt 0.136235 0.345267
vt 0.038882 0.304942
vt 0.173600 0.275363
vt 0.085985 0.216820
vt 0.223885 0.214091
vt 0.149374 0.139580
vt 0.285156 0.163806
vt 0.226614 0.076191
vt 0.355061 0.126441
vt 0.314736 0.029088
vt 0.430912 0.103432
vt 0.410354 0.000083
vt 0.431078 0.135207
vt 0.522790 0.075334
vt 0.602370 0.176215
vt 0.602370 0.000083
vt 0.355061 0.873558
vt 0.430911 0.896568
vt 0.410354 0.999917
vt 0.314736 0.970911
vt 0.285156 0.836194
vt 0.226613 0.923809
vt 0.223884 0.785909
vt 0.149373 0.860420
vt 0.173600 0.724637
vt 0.085984 0.783180
vt 0.136235 0.654732
vt 0.038882 0.695057
vt 0.113226 0.578882
vt 0.009877 0.609086
vn 0.0000 -1.0000 0.0000
usemtl None
s off
f 17/1/1 16/2/1 1/3/1 2/4/1
f 18/5/1 17/1/1 2/4/1 3/6/1
f 19/7/1 18/5/1 3/6/1 4/8/1
f 20/9/1 19/7/1 4/8/1 5/10/1
f 21/11/1 20/9/1 5/10/1 6/12/1
f 22/13/1 21/11/1 6/12/1 7/14/1
f 23/15/1 22/13/1 7/14/1 8/16/1
f 2/17/1 1/18/1 24/19/1
f 1/18/1 15/20/1 24/19/1
f 26/21/1 25/22/1 9/23/1 10/24/1
f 27/25/1 26/21/1 10/24/1 11/26/1
f 28/27/1 27/25/1 11/26/1 12/28/1
f 29/29/1 28/27/1 12/28/1 13/30/1
f 30/31/1 29/29/1 13/30/1 14/32/1
f 31/33/1 30/31/1 14/32/1 15/34/1
f 16/2/1 31/33/1 15/34/1 1/3/1
